Prepare Fiji outputs for building a SpatialExperiment — prep_fiji • visiumStitched
…
#    'prep_fiji_coords' produced a file of spatial coordinates for the
#    stitched Br2719
readr::read_csv(out_path_coords)
#> Rows: 14976 Columns: 6
#> ── Column specification ────────────────────────────────────────────────────────
#> Delimiter: ","
#> chr (1): key
#> dbl (5): in_tissue, array_row, array_col, pxl_row_in_fullres, pxl_col_in_ful...
#> 
#> ℹ Use `spec()` to retrieve the full column specification for this data.
#> ℹ Specify the column types or set `show_col_types = FALSE` to quiet this message.
#> # A tibble: 14,976 × 6
#>    key       in_tissue array_row array_col pxl_row_in_fullres pxl_col_in_fullres
#>    <chr>         <dbl>     <dbl>     <dbl>              <dbl>              <dbl>
#>  1 ACGCCTGA…         1         0         0             52935.              1873.
#>  2 TACCGATC…         1         1         1             52797.              2115.
#>  3 ATTAAAGC…         1         0         2             52658.              1873.
#>  4 GATAAGGG…         1         1         3             52519.              2115.
#>  5 GTGCAAAT…         1         0         4             52381.              1874.
#>  6 TGTTGGCT…         1         1         5             52242.              2115.
#>  7 GCATCCTC…         1         0         6             52104.              1874.
#>  8 GCGAGGGA…         1         1         7             51965.              2115.
#>  9 TGGTACCG…         1         0         8             51826.              1874.
#> 10 GCGCGTTT…         1         1         9             51688.              2115.
#> # ℹ 14,966 more rows
…
